lp,id produktu,nazwa,data dodania,email uzytkownika,Imi i nazwisko,tresc komentarza
1,219_A17C Gray,Kapcie chłopięce Attipas Cutie Gray,2019-06-16 10:37:22,joannanna.zak@gmail.com,Joanna Zak,"Przetestowane od rozm s do xl i kolejna przygoda od s rozoczęta. Lekkie, nie krzywią się pięty, szybko schną po praniu wystarczy osuszyć ręcznikiem i zostawic na noc rano do założenia. Model leopard się kulkuje ale nożyczkami raz w tyg można ""ogolić i są jak nowe, seria herbal też się sprawdziła, nie oszczędzana zawsze się spierała. Cutie gray testujemy od tygodnia, na plaży, łące i w mieście, pocenie stopek czasem się zdaża. Trzeba sprawdzać jak i w innych butach. Polecam"
2,434_154,Mido Noster trzewiki pieski 154 musztardowe,2019-09-18 13:30:51,kzalewskaa@gmail.com,Karolina Kuriata,"Wybrałam trzewiki mido jako pierwsze buciki dla synka i jestem zadowolona. Wydaje mi się że to dobry wybór. Buty są wystarczająco elastyczne, wykonane z dobrych materiałów. Są idealne dla dziecka z węższą stopą. Synek super sobie w nich radzi, nie wywraca się tak jak w innych butach."
3,2194_krebo-organiczne-prazek-różowe-23-26,Skarpetki dziecięce w prążki z bawełny organicznej różowe,2021-10-31 09:58:25,joanna.bugala85@gmail.com,Joanna Bugała,"Świetna jakość, polecam!"
4,2202_mido-708-róż-20,Mido Noster trzewiki profilaktyczne z liskami różowe,8 września 2020 14:19,adrianna.koss@gmail.com,Adrianna Piotrowska,Rewelacyjne buciki i w dodatku piękne!
5,2206_mido-708-żółte-22,Mido Noster trzewiki profilaktyczne z liskami musztardowe,13 października 2019 20:16,verona.bardo@onet.com.pl,Ewelina Kowaliszyn,Polecam
6,2206_mido-708-żółte-22,Mido Noster trzewiki profilaktyczne z liskami musztardowe,2020-04-11 16:17:25,Marko16ostry@interia.pl,Marek Ostrowski,Super. Nie mogę się do niczego przyczepić.
7,2206_mido-708-żółte-22,Mido Noster trzewiki profilaktyczne z liskami musztardowe,2019-11-17 21:24:11,Bogusia.bat@wp.pl,Bogusia Batko,Rewelacja
8,2206_mido-708-żółte-22,Mido Noster trzewiki profilaktyczne z liskami musztardowe,2020-04-07 07:55:36,luba_85@wp.pl,Luba Janiszewska,"Bardzo lubię  firmę Mido i to już kolejne buciki od nich. Tym razem zakup  MUNI SHOES. Szybki kontakt i dostawa, polecam!"
9,2208_mido-708-granatowe-21,Mido Noster trzewiki profilaktyczne z liskami granatowe,2020-10-08 20:53:12,patrycja.marculewicz@tlen.pl,Patrycja Marculewicz,Buciki bardzo dobrej jakości! Warte swojej ceny. Polecam
10,2292_primigi-4361833-21,Śniegowce Primigi 4361833 owcza wełna + membrana gore-tex ,2019-11-11 16:32:46,aleksandra.wroblewska1@wp.pl,Aleksandra Filipowska,"Ekspresowa wysyłka, buty idealne"
11,2446_Tutim B9439A musztardowe -19,Geox półbuty do nauki chodzenia Tutim B9439A musztardowe ,2020-04-13 15:23:56,A.n.k.a.mr@wp.pl,Anna Mróz,Bardzo dobry produkt zgodny z opisem synek zaczal chodzic sam przynosi buciki żeby mu zakładać a to jego 1sze. Polecam serdecznie
12,2464_geox-kaytan-b0251b-20,Geox balerinka Kaytan B0251B ,2020-05-03 08:20:34,agnieszkakochanowska11@gmail.com,Agnieszka Kochanowska-Stępczyńska,"Śliczne buciki, córeczka chętnie je nosi, idealne do sukienki."
13,2486_danielki-ta105-granat-fluo-18,Danielki sandały profilaktyczno-rehabilitacyjne granat/niebieski,2020-06-03 08:13:09,a.szarzynska@gmail.com,Anna Ziobro,"Papcie sa pieknie wykonczone, wkladanie na rzepy powoduje super dopasowanie  stopy do buta. Wysokie, polecam naprawdę jako buciki korekcyjne."
14,2484_danielki-ta105 petrol fluo-18,Danielki sandały profilaktyczno-rehabilitacyjne petrol/żółty,2020-06-19 20:30:26,aga12b25@wp.pl,Agnieszka Lis,"Wygodne, stabilne, zdrowe dla stopy, ładne. Mój syn z łatwością je ubiera."
15,2480_danielki T125 róż kwiatek-18,Danielki sandały profilaktyczno-rehabilitacyjne róż z kwiatkiem,2020-09-14 11:32:00,k.guzek78@gmail.com,Krzysztof Guzek,Super
16,2478_geox-j029bd-28,Geox oddychające trampki Flexyper J029BD granatowe,2020-05-16 20:34:14,jbinkowska76@gmail.com,Justyna Malinowska,Super
17,2494_porto-domowy-pyłek/róż-1110-40-19,Sandały profilaktyczno-korekcyjne domowe Mrugała Porto - róż/pyłek,2020-08-01 18:41:35,allicja84@wp.pl,Alicja Odachowska,Buty zgodne z opisem.  Do sklepu na pewno wrócę.
18,2514_abc-kids-B011310056-25,ABC Kids półbuty sportowe B011310056,2021-03-07 09:04:59,allicja84@wp.pl,Alicja Odachowska,Buty spełniły nasze oczekiwania.
19,2514_abc-kids-B011310056-25,ABC Kids półbuty sportowe B011310056,2020-05-17 23:10:54,czarna81@onet.eu,Aneta Makarska,rewelacja
20,2536_geox-b02a7j-22,Geox półbuty Kilwi WWF B02A7J granatowe ,2020-05-09 22:09:39,gabriela.duda@interia.eu,Gabriela Duda,Bardzo ładne buciki. Wygląd i rozmiar zgodne z opisem.
21,2554_primigi-5425322-23,Primigi sandały fusbet w emotki 5425322,2021-02-27 12:43:41,ema.allegro@gmail.com,Emilia Kuc,"Ladniejsze niz na foto, polecam"
22,2548_primigi-sandalki-granatowe-5383833-25,Primigi sandałki dziewczęce granatowe 5383833,2020-07-19 20:08:19,,Janina Majcherczyk,"Zdrowe,śliczne buciki."
23,2600_renbut-13-141-szary-20,RenBut kapcie szare na rzep ,2020-03-02 13:48:18,agnieszka.rudak@gmail.com,Agnieszka Bijas,"Super sklep, super ciapy, profesjonalna obsługa.Gorąco polecam."
24,2562_go-seashell-501015B-18,Bobux buty do nauki chodzenia Go Rose Gold,2021-04-26 18:28:29,malgostachura@gmail.com,Małgorzata Stachura,"Świetne, lekkie i elastyczne buciki do nauki chodzenia. Córka bardzo chętnie je nosi, wcześniej buty z twardszą podeszwą od razu zrzucała. A te są strzałem w 10! Delikatna skórka w pięknym kolorze. Na pewno kupię później większy rozmiar"
25,2560_go-seashell-501011B-18,Bobux buty do nauki chodzenia Go Seashell,2021-03-17 14:33:31,katarzynakedzik@wp.pl,Katarzyna Kędzik,Bardzo fajne i dobrze wykonane buciki. Polecam
26,2654_renbut-13-1513-granatowe-18,RenBut buty do nauki chodzenia granatowe,2020-04-05 09:56:40,marta.klejna77@gmail.com,Marta Klinkusz- Klejna,Świetne buty dla dzieci z wysokim podbiciem i szeroką stopą.
27,2654_renbut-13-1513-granatowe-18,RenBut buty do nauki chodzenia granatowe,2020-04-10 20:36:58,transgrabarek@interia.pl,Ewelina Grabarek,"Buciki są świetne, wygodne i bardzo ładne"
28,2654_renbut-13-1513-granatowe-18,RenBut buty do nauki chodzenia granatowe,2020-04-15 15:19:04,karolinasternalska@gmail.com,Karolina Sternalska,Buciki rewelacyjne!!!Polecam:)
29,2654_renbut-13-1513-granatowe-18,RenBut buty do nauki chodzenia granatowe,2020-04-06 21:32:40,Zaneta.koltonik@gmail.com,Żaneta Kołtonik,"Buty śliczne,mięciutkie i idealne do stawiania pierwszych kroczków.  Szczerze polecam!"
30,2678_geox-ghita-j028lb-24,Geox sandały fusbet Ghita J028LB navy,2020-07-04 15:39:15,Karolina.polaszek@o2.pl,Karolina Polaszek,"Bardzo wygodne, ładnie wyglądające. Rozmiar standardowy."
31,2746_kalosze-beżowe-19-20,Kalosze z kolekcji Pastelove beżowe - miś,2020-08-25 20:40:34,Katarzynalezki@gmail.com,Katarzyna Goszczyńska,Super kalosze polecamy
32,2736_kalosze-białe-19-20,Kalosze z kolekcji Royal Child Korona - biały,2020-07-07 14:06:58,agunia141@buziaczek.pl,Agnieszka Solarska,Przedewszystkim to zajebiscie miła Pani z którą rozmawiałam o przesyłce przez telefon.Pozdrawiam....kalosze ok ;-)
33,2722_primigi-5371733-26,Primigi sneakersy niebieskie 5371733,2021-04-20 14:35:20,m_kilis@wp.pl,Małgorzata Kiliś,"jestem mega zadowolona z zakupu - buty lekkie, kolorystyka taka jak na zdjęciach, wykonanie super, przede wszystkim wyglądają porządnie (zobaczymy jak po dłuższym użytkowaniu) . Wkładka w środku profilowana, wyjmowana. Stopa trzyma się ""sztywno"". Wszystko zgodnie z opisem. Obawiałam się rozmiarówki, ponieważ butów nigdy nie kupowałam bez przymiarki - ale rozmiar się zgadza. Dziecku też się podobały bo ""szybko biegały"" ;-). Sklep dodałam do ulubionych ;-)"
34,2782_729202-18,Bobux sandały Roam Chartreuse  rozm. 19-22 ,2020-05-03 15:46:00,monikakuty89@onet.pl,Monika Głowacka,Buciki solidnie wykonane.  Córka zadowolona
35,2780_729201a-18,Bobux sandały Roam Navy rozm. 19-22,2021-06-23 20:06:51,krzysztofik.mb@gmail.com,Marta Krzysztofik,Polecam
36,2754_lisek-róż-balerina-20,Mido Noster balerinki na rzepę liski różowe,2020-07-02 08:26:15,takatie82@gmail.com,Katarzyna Fabiańska,"Polecam buciki, bardzo wygodne i piękne"
37,2754_lisek-róż-balerina-20,Mido Noster balerinki na rzepę liski różowe,2020-06-30 14:32:11,olgarak.md@gmail.com,Olga Chlebicka,"Córka i rodzice zadowoleni :) wygoda, praktyczne zapięcie utrzymujące buciki na właściwym miejscu i uroczy wygląd, który świetnie uzupełnia różne stylizacje. Córce bardzo przypadły do gustu, a pomimo wieku 2,5lat jest wymagającą klientką ;) Pozdrawiamy i polecamy!"
38,2748_lisek-granat-balerina-20,Mido Noster balerinki na rzepę liski granatowe ,2021-02-17 22:55:19,wioletkakot@wp.pl,Nadia Swierkowska,"Buty sa piekne,pieknie wykonane zgodnie z opisem,napewno wygodne bo coreczka jest  bardzo zadowolona."
39,2794_mrugala-lola-natural-24,Sandały zabudowane Mrugała Lola Natural,2020-08-05 16:29:19,serenadriana11@gmail.com,Adriana Grobelna,cudowne :)
40,2794_mrugala-lola-natural-24,Sandały zabudowane Mrugała Lola Natural,2021-06-08 08:06:08,Agusian19@gmail.com,Agata Dul,"Ekspres wysyłka, Przemiła i fachowa obsługa! Polecam ten sklep w 100%!"
41,2790_mrugala-roma-ocra-20,Skórzane sandały Mrugała Roma Ocra,2020-07-08 10:46:07,zuza16@buziaczek.pl,Honorata Kochanowska,"Świetne sandałki, piękne i solidne."
42,2786_mrugala-roma-rosa-20,Skórzane sandały dla dziewczynki Mrugała Roma Rosa ,2020-06-14 14:40:55,natalia_mitkiewicz@tlen.pl,Natalia Skorupska,Serdecznie polecam zakup w sklepie Munishoes. Szybka wysyłka. Dobry kontakt.
43,2838_mido-sandal-kryty-camel-18,Mido Noster sandały kryte 163 camel ,2020-06-30 20:31:03,inez227@wp.pl,Małgorzata Bednarczyk,Jestem bardzo zadowolona z sandałkow dla synka. Buciki są mięciutki. Synek może swobodnie biegać nic nie uwiera go.
44,2838_mido-sandal-kryty-camel-18,Mido Noster sandały kryte 163 camel ,2020-05-26 14:21:39,Magda.ljubljana@gmail.com,Magdalena Świerczyńska,"Świetne, przede wszystkim porządne i starannie wykonane, a na dodatek super się prezentują na nodze mojego synka. Nadają się również dla dzieci, które dopiero doskonalą chodzenie. Następne buty kupimy również z tej firmy."
45,2824_mido-sandal-kryty-róż,Mido Noster sandały kryte 163 róż,2021-05-05 07:53:27,ewelina.zerbst@gmail.com,Ewelina Zerbst,Buty rewelacyjne dziecko szybko je zakłada i dodatkowo są bardzo wygodne
46,2822_mido-sandal-kryty-granat,Mido Noster sandały kryte 163 granat,2020-07-14 21:14:37,anonim,anonim,"Polecam! Miekka, elastyczna podeszwa, lekkie, miekka skóra."
47,2798_primigi-sandalki-5432000-24,Primigi sandałki różowe z motylkami 5432000,2021-03-23 12:25:09,mariadamczyk@gmail.com,Maria Adamczyk,"Polecam buty i sklep, szybka i profesjonalna obsługa"
48,2798_primigi-sandalki-5432000-24,Primigi sandałki różowe z motylkami 5432000,2020-05-24 20:56:09,aleksandra.presiak@icloud.com,Magda Presiak,bardzo dobra
49,2796_primigi-sandalki-5368622-20,Primigi sandałki miętowe z motylkami 5368622,2020-08-01 22:58:21,kasiaszefler@gmail.com,Katarzyna Kołowrocka,"Lekkie, wygodne a do tego śliczne"
50,2852_bobux-723431-19,Bobux sandały Jump Rose Gold rozm. 19-22  ,2020-06-22 18:29:56,katarzynahnat@op.pl,Katarzyna Kozioł,Bardzo dobre wygodne i ladne buty
51,2860_626015a-23,Bobux sandały Roam Caramel rozm. 23-26 ,2021-07-26 17:12:56,julia.laniak@gmail.com,Julia Łaniak,Buciki rewelacyjne. Syn miał na nóżkach buty dwóch różnych marek i bez zawahania  wybrał te sandałki.
52,2928_lisek-granat-26,Mido Noster trampki na rzepę liski granatowe 26-30,2020-11-10 14:13:25,anonim,anonim,Nie dość że piękne to jeszcze muszą być bardzo wygodne bo syn je uwielbia i kupujemy co raz większe rozmiary ? kochamy lisy!
53,2930_lisek-żółty-26,Mido Noster trampki na rzepę liski żółte 26-30 ,2020-12-15 16:06:43,miklaszasia@gmail.com,Joanna Mikłasz,Syn jest tak zadowolony że nie chce się z nimi rozstawać
54,2980_mido-713-róż-20,Mido Noster trzewiki profilaktyczne z misiami różowe,2021-10-11 13:54:54,pomaniunia@gmail.com,Paulina Pomaska,"Prześliczne buciki , super wykonane , kolor w rzeczywistości jest o wiele ładniejszy. Jestem mega zadowolona, córka również. Polecam serdecznie ?"
55,2980_mido-713-róż-20,Mido Noster trzewiki profilaktyczne z misiami różowe,2020-11-14 15:40:05,I.s.shipka@gmail.com,Inna Shypka,"Są bardzo wygodne, córeczka je lubię."
56,2952_mrugala-jogi-rosa-pyłek-6158-1-44-21,Trzewiki Mrugała Jogi Rosa Pyłek z membraną Te-Por ,2020-09-30 15:13:04,holub.ada@gmail.com,Ada Hołub-Palonka,"Bardzo szybko zrealizowane zamówienie. Buty rewelacyjne - to już nasza 3 para na jesień z tej serii. Trzewiki są bardzo lekkie, ciepłe i  nie przemakają. Mama Weroniczki"
57,2942_primigi-6355733-18,Primigi buty do nauki chodzenia 6355733,2021-03-07 06:58:59,kondrasnatalia77@gmail.com,Natalia Kondras,Rewelacyjne! 2 latek poleca :)
58,2982_geox-biglia-b044cb-20,Geox trzewiki Biglia B044CB ,2020-10-20 14:05:47,Kornelia.kolka@wp.pl,Kornelia Szymańska,"Buty świetne. Miękka wkładka, córka zadowolona. Polecam."
59,4826_geox-j04cfb-26,Geox śniegowce Sentiero J04CFB Waterproof,2021-02-13 12:24:26,domanskaanna@tlen.pl,Anna Domanska,Plus wielki
60,2990_mido-22-20-pudrowy-roz-20,Mido Noster trzewiki z membraną Te-Por sówki pudrowy róż,2020-10-12 11:57:48,dominika.rumin@gmail.com,Dominika Wójcik,Polecam.Porządne wykonanie. Uroczy wygląd. 2 letnie dziecko bez problemu radzi sobie z samodzielnym zakładaniem
61,3026_kalosze-brudny-róż-19/20,Kalosze z kolekcji Sweet Dreams brudny róz - serce,2020-10-15 15:48:44,joanna_switaj79@o2.pl,Joanna Świtaj,"Kalosze śliczne, przepiękny kolor, a córka nie chce zakładać innych bucików ;)"
62,3010_mido-22-20-czarne-20,Mido Noster trzewiki z membraną Te-Por sówki czarne,2021-10-04 16:01:49,aleksandrapachacz@gmail.com,Aleksandra Pachacz,Butki super. Dostawa jak zwykle ekspresowo!! Polecam
63,3010_mido-22-20-czarne-20,Mido Noster trzewiki z membraną Te-Por sówki czarne,2021-04-28 22:17:14,saraorzlowska@wp.pl,Sara Orzlowska,Super buciki
64,3072_22-31-liski-granatowe-mido-20,Mido Noster śniegowce z membraną liski granatowe ,2020-12-07 19:25:44,martaa.ratajczak@onet.pl,Marta Ratajczak- Citkowska,"Super ciepłe buciki , zgodne z rozmiarówka . Widać , ze są solidne ."
65,3070_mrugala-mali-bear-black-7151-9-92-21,Śniegowce Mrugała Mali Bear Black ,2020-11-24 20:19:18,atelokin@wp.pl,Nikoleta Łącka,Nie wyobrażam sobie innych butów na zimę dla mojego synka już od kilku sezonów 
66,3068_iwo-rosa-pyłek-7181-21,Śniegowce Mrugała Iwo Rosa Pyłek,2020-12-05 14:13:13,mira1175@wp.pl,Karolina Imiela,Super buty
67,3062_iwo-black-7181-0-99-21,Śniegowce Mrugała Iwo Black ,2021-11-07 20:42:37,albert-lukasiewicz@wp.pl,Albert Łukasiewicz,Polecam
68,4760_geox-b043qb-22,Geox śniegowce Flexyper B043QB Amphibiox    ,2021-01-23 13:06:12,martakanas85@gmail.com,Marta Kanas,"Bardzo sprawna wysyłka, buty świetne!"
69,3296_043-cu14,Getry bawełniane Steven czarne,2020-11-28 12:25:01,anonim,anonim,"Świetna jakość, rozciągliwe, dobrze się noszą i piorą. Mamy jeszcze beżowe."
70,3290_22-18-misie-szare-mido-20,Mido Noster śniegowce z membraną misie szare,2020-11-17 11:27:32,Magda.ljubljana@gmail.com,Magdalena Świerczyńska,"Piękne,  solidne buty"
71,3290_22-18-misie-szare-mido-20,Mido Noster śniegowce z membraną misie szare,2020-12-07 13:05:14,mkubiaczyk.polska@wp.pl,Marta Czapla,"Piękne, ciepłe Po prostu super"
72,3260_RSL0-4/004-0-2,Mama's Feet podkolanówki Renia sprytna lisica,2021-10-03 09:12:11,Ozipau23@wp.pl,Paulina Oziębła,Super
73,3146_-22-18-misie-brąz-mido-20,Mido Noster śniegowce z membraną misie brąz,2020-11-29 18:21:59,Sylwiaspa@wp.pl,Sylwia Kaczor,"super wykonane, piekne, cieple, lekkie"
74,3132_22-31-liski-rude-mido-20-1,Mido Noster śniegowce z membraną liski rude ,2021-11-05 22:14:56,m.chmielewska01@gmail.com,Magdalena Chmielewska,Polecam serdecznie
75,3084_22-07-owieczki-róż-mido-20-,Mido Noster śniegowce z membraną owieczki różowe,2020-12-01 08:45:57,aleksandra.serzysko@gmail.com,Aleksandra Serżysko,Bardzo fajne buciki. Pięknie wykonane. Rozmiar zgodny z opisem. Zakupy przebiegły szybko i bez problemu.
76,3356_geox-b9440h-pink-18,Geox półbuty do nauki chodzenia Tutim B9440B Pink,2021-05-03 18:25:48,monika.hillar1996@gmail.com,Monika Orzechowska ,"Buty piękne, wysokiej jakości, dziecko zaczęło w nich chodzić, gdzie wcześniej nie chciało za bardzo. Widać, że córce w nich wygodnie i dobrze się chodzi. Na pewno to nie ostatni zakup butów tej marki."
77,3346_cienta-7802090-24,Cienta tenisówki na rzepy granatowe  7802090,2021-06-10 06:14:07,salamonpaulina91@gmail.com,Paulina Salamon,"Tenisówki są bardzo oddychające , podeszwa pięknie pachnie więc po całym dniu stópka malucha ma przyjemny zapach. Polecam !"
78,3446_mrugala-bobo-rosa-stars,Mrugała trzewiki Bobo Rosa Stars,2021-04-13 10:26:40,renata-7@tlen.pl,Renata Tokarska,"Przesyłka bardzo szybka, buciki zgodne z oczekiwaniem, bardzo ładne i wygodne dla dziecka."
79,3620_ulka-opaska-magical-garden-6-12,Opaska dla dziewczynki Ul & Ka Magical Garden,2021-03-18 09:40:24,gosialowicka@o2.pl,Małgorzata Łowicka-Smolarek,Prześliczna i bardzo ładnie wykonana.
80,760_13-112-1 srebrne,RenBut kapcie/sandałki srebrne z różem na rzepy,2021-03-29 11:49:46,agnieszka@turska.eu,Agnieszka Turska,ładne i dobrze wykonane
81,3538_mido-granat-166-18,Mido Noster buciki do nauki chodzenia Bambino granat,2021-04-14 08:17:49,paulinakuciej@gmail.com,Paulina Szymańska,Wybraliśmy je jako pierwsze buciki dla synka i jestem bardzo zadowolona. Po pierwsze pasują na bardzo wysokie podbicie. Są porządnie wykonane z naturalnych tworzyw. Miękkie i przyjemne dla stopy dziecka. Do tego bardzo szybka wysyłka. Polecam serdecznie ;-)
82,3538_mido-granat-166-18,Mido Noster buciki do nauki chodzenia Bambino granat,2021-08-24 17:29:10,aleksandra.murawa@gmail.com,Aleksandra Murawa,"Leciutkie, mięciutkie, extra giętkie buciki do nauki chodzenia. Synek zadowolony :-)"
83,3492_suzi-fox-blu-5280-1-73-26,Mrugała Trzewiki Suzie Fox Blu rozm. 26-30   ,2021-06-22 14:09:50,magdagrela@wp.pl,Magdalena Gregorczuk,Idealne!!!
84,3476_mrugala-maki-fox-blu-20,Mrugała półbuty Maki Fox Blu - granatowe z liskiem r. 20-25,2021-05-04 15:00:54,ola_samsel@wp.pl,Aleksandra Wilczek,Polecam :) Szybka wysyłka . Buciki Suuuper!!!!!
85,3716_mido-mis-granat-20-44-20,Mido Noster półbuty na rzepę misie granat,2021-09-21 22:03:41,martatadych88@gmail.com,Marta Tadych-Pomorska,Najlepsze buty dla małej dopiero kształtującej się stopy. Synek uwielbia buty MidoShoes.
86,3704_lisek-rudy-30-31-26,Mido Noster półbuty na rzepę liski rude 26-30  ,2021-04-24 23:02:28,kawodecka@gmail.com,Katarzyna Wodecka,"Solidne wykonanie, ładny design, miękka skóra. Buty dobrze trzymają stopę i maja elastyczną podeszwę"
87,3782_renbut-13-1516-18,RenBut buty do nauki chodzenia granat/róż,2021-04-21 16:07:14,zelekiwona@gmail.com,Iwona Zelek,"miekka podeszwa, wygodne, dobra jakość wykonania, polecam!"
88,3762_primigi-sandaly-fusbet-7429177-24,Primigi sandały fusbet pastel 7429177,2021-06-26 16:39:46,melcia82@gmail.com,Milena Korycka,"Sandałki super. Polecam sklep, szybka wysyłka"
89,3718_mido-mis-pudrowy-róż-20-44-20,Mido Noster półbuty na rzepę misie ciemny pudrowy róż,2021-08-18 15:49:31,justyna89w@o2.pl,Justyna Wielgosz,Piekne solidne
90,3790_ameko-a2-n-pralina-ic19-20,Ameko Trzewiki Pierwsze Kroczki brązowe na rzepy,2021-08-20 09:29:27,sandra1.b@onet.eu,Sandra Brodzińska,Kocham wasz sklep i wasze buciki  są cudowne 
91,3822_mido-20-45-granat-20,Mido Noster półbuty z gumowym noskiem granat,2021-09-14 15:03:51,karolinazaboklicka@wp.pl,Karolina Żaboklicka,Polecam
92,3814_primigi-7385011-27,Primigi PMG Black Lab sneakersy pastelowe 7385011,2021-04-21 20:42:57,anka.draminska@gmail.com,Anna Dramińska,"Buty są rewelacyjne. Córka pokochała je za wygląd ale i wygodę, bo biega w nich niczym zawodowiec! Bardzo solidne wykonanie."
93,3792_ameko-a3-n-pralina-ic19-20,Ameko Trzewiki Pierwsze Kroczki brąz/musztarda,2021-04-19 19:32:18,d.cerbniak@wp.pl,Magdalena Cerbniak,Buciki piękne i lekkie:) Dostawa szybka:) Polecam. Z pewnością to nie był mój ostatni zakup.
94,3862_primigi-7369233-18,Primigi buty do nauki chodzenia różowe 7369233,2021-09-14 19:58:52,esmolkowska16@gmail.com,Ewelina Bartela,"Świetne buty, podeszwa elastyczna, łatwo się zakłada i zdejmuje. 
Kontakt ze sklepem bardzo dobry. Kupiłam rozmiar 20-okazały się za duże, wymienilam na 19 bez problemu. Polecam"
95,3932_biomecanics-212137-granat-18,Biomecanics półsandały do nauki chodzenia 212137,2021-07-07 14:01:27,bg.grzesiek@gmail.com,Bogusława Grzesiek,"Buciki rewelacyjne, rzepy pozwalaja na dopasowanie dla pulchniejszej i szczuplejszej stopki, lekkie, ale jednoczesnie przytrzymujace stopke, polecam. Cena troche wysoka ale za jakosc się płaci."
96,3894_mido-20-45-salomon-20,Mido Noster półbuty z gumowym noskiem róż/brokat,2021-09-27 10:02:27,Piotr.podczarski@o2.pl,Patrycja Podczarska,Wszystko super 
97,4110_mama-s-vintage-białe-0-1,Mama's Feet skarpetki Vintage Love białe,2021-07-04 19:43:54,FRAGOLA2610@INTERIA.PL,Weronika Zapotoczna,"Skarpetki piękne dostawa kspresowa,jestem zadowolona 
Polecam sklep"
98,4006_mimi-holo-lilac-18,Mrugała sandały zabudowane Mimi Holo Lilac,2021-07-14 21:59:24,mwalczak86@interia.pl,Marta Walczak,"Moje ulubione sandały dla dziecka. W zeszłym roku kupiłam w miętowym kolorze. W tym roku zdecydowałam się na kolor holo- złote,  które są równie piękne. Serdecznie polecam produkt. Warty swojej ceny."
99,4006_mimi-holo-lilac-18,Mrugała sandały zabudowane Mimi Holo Lilac,2021-07-19 22:26:54,ninaona@wp.pl,Magdalena Michalak,Idealne buciki dla dwulatki
100,4214_mido-sandal-mis-eosin-21,Mido Noster sandały misie eosin,2021-08-23 10:48:40,poniatowska92@gmail.com,Klaudia Poniatowska,Super wykonanie
101,4444_primigi-8464100-27,Primigi sneakersy PMG z diodami LED 8464100,2021-10-17 20:59:29,kamilamackowiak8@wp.pl,Kamila Sobańska,Super szybko i towar perfect.Polecam.
102,4406_geox-168wc-26,Geox trampki dziewczęce Kraina Lodu z diodami LED Skylin J028WD ,2021-10-23 18:40:41,wrbel.justyna91@gmail.com,Justyna Wróbel,Polecam
103,4390_mido-czarne-166-18,Mido Noster buciki do nauki chodzenia Bambino czarne,2021-10-11 16:35:52,aniamaj84@o2.pl,Anna Maj,"Super miękkie,myślę że wygodne ale dla mnie jako rodzica wspaniały sklep, doradztwo i chęci za to 5+"
104,4214_mido-sandal-mis-eosin-21,Mido Noster sandały misie eosin,2021-07-25 09:40:31,Edyta.blus@wp.pl,Edyta Juszczak,Super buciki
105,894_B8446B-1-1-5,Geox trzewiki B Toledo B8446B,2019-09-25 12:24:40,jbednarek12@wp.pl,Justyna Graczyk,"Buciki bardzo ładne,rozmiar zgodny.Dostawa ekspresowa."
106,4674_titot-meadow-fairy-17,Titot kapciuszki Meadow Fairy,2021-09-22 06:56:13,magdamochol@wp.pl,Magdalena Mochol- Gołąb,Moja córeczka uwielbia
107,912_Geox B842HA -22,Geox trzewiki zimowe B Hynde B842HA Navy Waterproof ,2019-10-07 12:22:52,Dagmara.sobkowiak@gmail.com,Dagmara Sobkowiak,Solidnie wykonane. Łatwe w zakładaniu. Mocne rzepy. super się sprawdzają na długich i wymagających spacerach po lesie. Polecam
108,1390_lisek żółty-20,Mido Noster trampki z liskami żółte 20-25,2020-03-28 19:39:32,sylwkakaras@gmail.com,Sylwia Karaś,"piekn3, dobrze wykonane i mój synek nimi zachwycony"
109,1390_lisek żółty-20,Mido Noster trampki z liskami żółte 20-25,2020-06-10 15:47:47,anonim,anonim,"Bardzo wygodne i dobrze trzymają stópkę dziecka. To już nasz drugi rozmiar dokładnie z tego modelu i trzeci bucik Mido Noster. Z każdego jesteśmy tak samo bardzo zadowoleni :) Polecam! Bucik z naturalnej skóry, stopa dziecka się nie grzeje, a to bardzo cenne!"
110,1328_626008a-23,Bobux sandały Roam Navy rozm. 23-26,2021-06-21 09:44:25,annakniec@gmail.com,Anna Baran,"Te buty są bardzo drogie ale świetnie.  Rozmiarowka zanizona tzn. 26 jest jak 27
Lepsze niż Emel.
Polecam!!!"
111,4806_mrugala-mali-bunny-berry-21,Śniegowce Mrugała Mali Bunny Berry,2021-11-08 12:25:47,magda.rozk@gmail.com,Magdalena Rożkowicz,"Super, sprawnie i bez pomyłek"
112,4804_22-27-jednorożce-beż-mido-20-,Mido Noster śniegowce z membraną jednorożce beż,2021-11-09 22:47:21,dulu89@hotmail.com,Zuzanna Wijas,Porządnie wykonane. Plus za estetyczne wykończenie które się dziecku bardzo podoba
113,4774_22-18-misie-camel-mido-20,Mido Noster śniegowce z membraną misie camel,2021-11-03 10:57:44,ahersztanska84@wp.pl,Anastasiya Dembicka,"Buciki świetnie pasują, łatwo się zakladają, wyglądają przepięknie"
114,4758_mrugala-andy-bunny-berry-6180-20,Trzewiki Mrugała Andy Bunny Berry z membraną Te-por 6180   ,2021-10-25 16:50:40,kasia.lecyk@interia.pl,Katarzyna Lecyk,Idealne buciki
115,4726_mrugala-andy-alpaca-khaki-6180-20,Trzewiki Mrugała Andy Alpaca Khaki z membraną Te-por 6180   ,2021-11-01 17:24:01,dziedzicbasia@op.pl,Barbara Dziedzic-Bar,"Buty warte swojej ceny, Elastyczna podeszwa i zapiętek dobrze trzymający piętę 
polecam"
116,1462_primigi-sandałki-5405600-20-19,Primigi sandałki różowe z motylkiem 5405600,2019-06-22 15:27:39,barbarabojarczuk@o2.pl,Barbara Bojarczuk-Pudło,Primigi świetna firma najbardziej rodzice cieszy jak dziecko jezt bardzo zadowolone to jest najważniejsze.
117,1428_mrugała maki fox blu-20,Mrugała półbuty Maki Fox Blu - granatowe z liskiem r. 20-25,2020-03-31 06:50:54,soniasekula@wp.pl,Sonia Kowalik,"Ładnie wykonane, urocze buciki. Niestety okazały się o rozmiar za małe, na szczęście bez problemu można je oddać i wymienić."
118,1410_kalosze błękitne 19/20,Kalosze z kolekcji Pastelove błękitne - jelonek,2020-05-29 17:00:12,anonim,anonim,"Super zrobione, wygodne kalosze. Wersja z ociepleniem jest idealnym rozwiązaniem."
119,1398_lisek granat-26,Mido Noster trampki z liskami granatowe,2020-04-14 07:31:33,ilonawalczak@o2.pl,Ilona Figrska,Buciki przepiękne.
120,1398_lisek granat-26,Mido Noster trampki z liskami granatowe,2020-06-02 14:53:13,magda.czapiga86@op.pl,Magdalena Czapiga- Ryjewska,Buty rewelacyjne ??polecam !!
121,1780_cienta 7699752 -23,Cienta balerinki na rzep różowe 7699752,2021-06-14 17:57:00,malgorzatamalczak@gmail.com,Małgorzata Malczak Bednarska,Sliczne i wygodne
122,1774_Crocs 206795 Pink Lemonade -c6,Sandały Kids Crocs Fun Lab Sandal Stars - Pink Lemonade,2019-06-19 20:53:12,arancza@o2.pl,Karolina Szafranek,"Super szybka przesyłka,wszystko zgodnie z opisem:)"
123,1670_porto domowy wrzos 1110-45 -20,Sandały profilaktyczno-korekcyjne domowe Mrugała Porto - wrzos/gwiazdki ,2021-11-14 15:23:54,Ewamackiewicz82@gmail.com,Ewa Żuraw,Buty zgodne z opisem. Bardzo ładnie wyglądają i spełniają swoją role.
124,1662_sandał porto jasny róż-19,Sandały profilaktyczno-korekcyjne Mrugała Porto jasny róż,2020-07-05 18:22:56,aniarutkowska1982@wp.pl,Ania Przywozna,"Buciki bardzo solidne, zgodne z opisem, polecam buty i sklep."
125,1644_Mrugała 1105/9-40 -20,Skórzane Sandały Mrugała Flo Rosa Stars 1105/9-40,2019-06-01 08:54:23,monikaw105@wp.pl,Monika Pawłow,"Polecam, fajne, dobrze leżą, dość elastyczny spód."
126,1640_DR 0002 baby pink - 104-110,Rajstopki Knittex AGATKA prążkowane różowe- wiskoza ,2019-09-23 15:07:44,karolinajoannaruminska@gmail.com,Karolina Rumińska,"Rajstopki rozciągliwe, przyjemne w dotyku, bardzo ładne. Mała klientka bardzo zadowolona :)"
127,1634_knittex fifi 116-122,Rajstopki Knittex FIFI z kotkiem-mikrofibra róż,2020-05-13 11:43:11,dominikaldz@wp.pl,Dominika Lewin-Dzianach,"Bardzo fajne,trwałe, super"
128,1532_Geox Kaytan B1551B-20,Geox sandały Kaytan B1551B,2020-02-22 16:12:48,wioleta.malys.strzeciwilk@gmail.com,Wioleta Strzęciwilk,"Bardzo polecam obuwie firmy Geox. Wygodne, miękkie i dopasowane do stopy. Nie jest to pierwszy zakup tej marki i zawsze byłam zadowolona. Rozmairówka standardowa. Serdecznie polecam."
129,1506_Attipas Dino Fuchsia-s,Kapcie dziewczęce Attipas Dinosaur Fuchsia ,2019-10-05 17:00:14,joannanna.zak@gmail.com,Joanna Zak,"Od dawna korzystamy z Attipasow, ze starszą i małą córką. Wygodne dla dziecka od poczatku raczkowania. Łatwe w praniu, szybko schną.Niektóre modele trzeba czesciej golić ale po tym ""zabiegu wygladaja jak nowe ?"
130,1790_cienta 7099723 -23,Cienta tenisówki z gumką szare 7099723,2020-08-30 15:30:40,ewelina.radomska@icloud.com,Ewelina Radomska,Buty ekstra.
131,1790_cienta 7099723 -23,Cienta tenisówki z gumką szare 7099723,2021-06-17 05:28:08,am.zabrocka@gmail.com,Agnieszka Jeziorska,"Produkt zgodny z opisami, rozmiar tez się zgadza. Buty ładnie pachną moja 4,5 latka jest bardzo z nich zadowolona. Szybka dostawa."
132,1790_cienta 7099723 -23,Cienta tenisówki z gumką szare 7099723,2021-06-19 15:03:10,mciarka81@gmail.com,Marta Borecka,Rewelacja jak zawsze!!!!
133,1790_cienta 7099723 -23,Cienta tenisówki z gumką szare 7099723,2021-05-12 16:39:52,kasia.kedziorka@gmail.com,Katarzyna Gorzelak,Jestem bardzo zadowolona. Szybka transakcja oraz przesyłka.
134,1832_cienta 7077742-24,Cienta tenisówki z gumką różowe przecierane 7077742,2021-06-15 20:13:16,afliszewska@gmail.com,Alina Król,Na szczupłą stopę idealne!
135,1832_cienta 7077742-24,Cienta tenisówki z gumką różowe przecierane 7077742,2021-05-18 17:11:13,Anijoz73@wp.pl,Anita Jóźwik,"Trampeczki cudowne, zresztą nie jest to moja pierwsza para."
136,1822_Babice muffinka BA-049 -S,Babice kapciuszki z muffinką kremowe,2020-04-11 14:05:47,dilis2002@yandex.ru,Olga Kurulenko,Bardzo jakościowy !!!
137,1816_Babice lisek BA-111 -S,Babice kapciuszki z liskiem,2019-12-21 13:33:20,mk.jedraszczyk@live.com,Monika Piotrowska,"Mój 2 letni synek nie lubi kapci nie chciał chodzić w żadnych. To pierwsze,  które polubił. Są wygodne, mięciutkie i po prostu śliczne. Polecam!"
138,1810_DR 1806 inga - 104-110,Rajstopki Knittex Inga z kokardką - mikrofibra ,2019-10-17 22:30:10,morzechowska@interia.pl,Monika Orzechowska,Ładne i wytrzymałe.
139,1830_Babice dinozaur BA-228 -S,Babice kapciuszki z dinozaurem,2020-11-24 16:09:55,kslawieniak@interia.pl,Katarzyna Sławieniak,"Towar zgodny z opisem, szybka wysyłka"
140,1826_Babice myszka BA-178-S,Babice kapciuszki z uszkami myszki,2021-09-21 15:46:20,kamilabuchcic@gmail.com,Kamila Sliwa,"Solidnie wykonane kapcie, wygodne, dziecko nie slizga się. Super"
141,1834_cienta 7099752-23,Cienta tenisówki z gumką różowe 7099752,2020-06-16 12:27:16,dmkupniewska@gmail.com,Dominika Kupniewska,"produkt odpowiada opisowi, szybka wysyłka."
142,1834_cienta 7099752-23,Cienta tenisówki z gumką różowe 7099752,2020-08-15 18:49:24,Magdalenamachel@gmail.com,Magdalena Machel,Super!
143,1834_cienta 7099752-23,Cienta tenisówki z gumką różowe 7099752,2020-05-28 11:30:06,palinka50@wp.pl,Paulina Sawicka,"Super buty, dziecko zadowolone, wygodne polecam z całego serca"
144,1834_cienta 7099752-23,Cienta tenisówki z gumką różowe 7099752,2019-10-01 12:47:08,a.m.surlej@gmail.com,Anna Surlej,Uwielbiamy
145,1834_cienta 7099752-23,Cienta tenisówki z gumką różowe 7099752,2021-04-20 14:28:23,magda.krolewicz83@gmail.com,Magdalena Królewicz,"Trampki dobrze wykonane, ulubione buty córki."
146,1834_cienta 7099752-23,Cienta tenisówki z gumką różowe 7099752,2021-09-08 15:28:05,dorotaszczepaniak@icloud.com,Dorota Szczepaniak,"Butki ładne, pachnące, wygodne, lekkie"
147,1834_cienta 7099752-23,Cienta tenisówki z gumką różowe 7099752,2020-05-24 20:17:52,martagorynia@gmail.com,Marta Rybszleger,Polecam w 100%!
148,1834_cienta 7099752-23,Cienta tenisówki z gumką różowe 7099752,2020-07-13 18:55:52,marlena.woloszczyk@gmail.com,Marlena Wołoszczyk-Olszyna,Bardzo wygodne tenisówki. Miękka podeszwa. Piękny zapach.
149,1834_cienta 7099752-23,Cienta tenisówki z gumką różowe 7099752,2020-06-12 16:00:51,annaraj86@wp.pl,Anna Czerewko,Butki rewelacja! Expresowa wysyłka! Polecam!
150,1834_cienta 7099752-23,Cienta tenisówki z gumką różowe 7099752,2020-07-11 12:39:59,aleksandraduda87@gmail.com,Aleksandra Duda,"Szybka wysylka, towar zgodny z opisem - buty sliczne :)"
151,1852_steven muffinka róż 148 -,Stopki bambusowe Cotton Candy różowe z muffinką,2021-04-18 16:22:45,karolina.lesniak@opoczta.pl,Karolina Wrona,Polecam
152,1970_kalosze czarne 19/20,Kalosze z kolekcji Royal Child Korona - czarny,2020-03-31 09:12:22,agnieszkakozik@gmail.com,Agnieszka Kozik,Super polecam
153,1970_kalosze czarne 19/20,Kalosze z kolekcji Royal Child Korona - czarny,2020-03-28 20:43:07,ewciakrasnicka@wp.pl,Ewa Małecka,Wszystkim polecam
154,1874_renbut 13-1516-niebieskie-18,RenBut buty do nauki chodzenia niebieskie,2021-03-07 21:18:01,gladka13@wp.pl,Maria Gładysz,"Córeczka bardzo zadowolona, sama zakłada buciki, polecam."
155,2018_cienta 7077723 -24,Cienta tenisówki z gumką szare 7077723,2021-05-02 10:57:39,sylwanamatuszewska@wp.pl,Sylwana Matuszewska,Świetne buty dla dzieci. Nasz kolejny sezon z nimi. Buciki lekkie wygodne bardzo dobrze wykonane. Pięknie pachną. Polecam
156,2018_cienta 7077723 -24,Cienta tenisówki z gumką szare 7077723,2021-05-10 21:28:43,karola.zmitro@gmail.com,Karolina Rogoża,"Super wykonanie, bardzo ładnie leżą na stopie, przewiewne. Córka je uwielbia :)"
157,2020_Cienta 7099748 -24,Cienta tenisówki z gumką granatowe 7099748,2020-06-01 19:40:10,arogulskacwierzyk@interia.pl,Agnieszka Rogulska-Cwierzyk,Świetne pachnące buty bardzo dobrej jakości polecam
158,3098_22-14-traperki-beż-mido-20-,Mido Noster śniegowce z membraną traperki beżowe,2021-11-17 12:44:08,Justyna,Justyna,"Zamawiam 3ci rok z rzędu. Piękne buty, nie przemakają i mimo jasnego koloru zachowują czystość."
159,2146_geox-j942cn-28,Geox oddychające trampki Alonisso J942CN   ,2020-10-13 11:42:15,elewina960@gmail.com,Ewelina Król,Jak zwykle pierwsza klasa
160,2112_Geox Kaytan B9451C -20,Geox kozaczki Kaytan B9451C Black,2020-10-07 19:44:07,Ozipau23@wp.pl,Paulina Oziębła,Super
161,2138_geox-xunday-b841ba-navy-22,Geox trzewiki B Xunday B841BA Navy,2020-03-29 09:54:17,marcin@kuchcinski.eu,Marcin Kuchciński,"Realizacja super, buciki bardzo dobrej jakości.
Zwrot innych niepasujących bucików bezproblemowy.
Polecam"
162,1368_Primigi 3426633-21,Primigi sandały fusbet tropikalny las 3426633,2020-06-16 16:20:01,lina.afifi@gmail.com,Lina Afifi,"Bardzo ładne sandałki, szybka dostawa"
163,3084_22-07-owieczki-róż-mido-20-,Mido Noster śniegowce z membraną owieczki różowe,2020-11-21 15:07:26,ofrackiewicz4@gmail.com,Olga Frąckiewicz,Buciki są bardzo piękne I wygodne
164,3084_22-07-owieczki-róż-mido-20-,Mido Noster śniegowce z membraną owieczki różowe,2020-10-28 14:32:49,Joanna_klejsa@wp.pl,Joanna Broszkiewicz,"Buciki sa śliczne, dobrze wykonane, czekają na pierwsze mrozy ;)"
165,3084_22-07-owieczki-róż-mido-20-,Mido Noster śniegowce z membraną owieczki różowe,2020-10-28 23:12:30,justynatp18@go2.pl,Justyna Pietrzak-Chacińska,Super
166,3084_22-07-owieczki-róż-mido-20-,Mido Noster śniegowce z membraną owieczki różowe,2020-10-18 14:00:20,zanetakurdziel@gmail.com,Żaneta Kurdziel,"Super buty, ciepłe, wygodne, dziecko zadowolone. POLECAM."
167,3010_mido-22-20-czarne-20,Mido Noster trzewiki z membraną Te-Por sówki czarne,2020-10-10 18:26:46,kamilabachryj@gmail.com,Kamila Bachryj,Polecam
168,3256_22-18-misie-czarne-mido-20,Mido Noster śniegowce z membraną misie czarne,2020-11-15 15:11:10,Mbkmbk@wp.pl,Barbara Korbus,Super buciki. Ciepłe i super wyglądają.
169,3250_22-18-misie-róż-mido-20,Mido Noster śniegowce z membraną misie eosin,2020-11-15 21:49:18,izabela.andrejczyk@wp.pl,Izabela Suchocka,"jestem bardzo zadowolona z zakupu, córka również :). Lekkie, ciepłe, dobrze się wkładają. Nic dodać, nic ująć. Wrócę po kolejne :)"
170,3146_-22-18-misie-brąz-mido-20,Mido Noster śniegowce z membraną misie brąz,2020-11-11 07:54:01,annabaranowska7@wp.pl,Anna Beczkowska,Świetne! ❤️
171,3146_-22-18-misie-brąz-mido-20,Mido Noster śniegowce z membraną misie brąz,2020-11-13 08:11:07,jarzabeczek@poczta.onet.pl,Katarzyna Kwaśniewska,Śliczne  i świetnie wykonane buciki. Dziękuję i polecam
172,3132_22-31-liski-rude-mido-20-1,Mido Noster śniegowce z membraną liski rude ,2020-11-16 11:01:27,agnieszka.m.czubak@gmail.com,Agnieszka Czubak,Solidnie wykonane buty. Podobny model kupiłam w poprzednim sezonie - bardzo dobrze sprawdzał się w miejskich warunkach. Stopa nie marznie a dzięki membranie nic nie przemaka. Ten model raczej sprawdzi się dla dzieci z szerszą stopą.
173,3098_22-14-traperki-beż-mido-20-,Mido Noster śniegowce z membraną traperki beżowe,2020-11-02 11:35:16,magdalena.cieslik90@gmail.com,Magdalena Mól,"Polecam ! Śniegowce wyglądają świetnie . Jednak wg dl wkładki mielibyśmy je na styk, bo dochodzi jeszcze ocieplany kożuszek wewnątrz :)"
174,3084_22-07-owieczki-róż-mido-20-,Mido Noster śniegowce z membraną owieczki różowe,2020-10-22 08:50:37,sloneczko621@wp.pl,Monika Łuszczewska-Kowalewska,buty i dostawa super sprawnie i szybko
175,2906_primigi-sneakersy-4404422-21,Primigi sneakersy 4404422,2020-09-14 06:30:30,sloneczko621@wp.pl,Monika Łuszczewska-Kowalewska,Buty  piękne  i wygodne
176,2886_primigi-5400022-18-1,Primigi buty do nauki chodzenia gtanatowe licowe 5400022,2020-10-05 11:22:02,ziomek.ag@gmail.com,Agnieszka Ziomek,"Bardzo duży zróżnicowany wybór obuwia dla dzieci.
Jestem bardzo zadowolona z jakości produktów, które oferuje MUNI.
Skórzane obuwie, wykończone gumową podeszwą idealne buciki dla dziecka, które właśnie zaczęło swoją przygodę z chodzeniem:)"
177,2778_primigi-5401633 -19-1-1,Primigi trzewiki 5401633  turkus,2020-06-15 12:15:51,kasienka310@o2.pl,Kasia Książek,"Najlepsze buty jakie kiedykolwiek kupiłam  dla dziecka. Mięciutkie, lekkie, idealne dla dziecka"
178,,,,,,
179,,,,,,
180,,,,,,
181,,,,,,
182,,,,,,
183,,,,,,
184,,,,,,
185,,,,,,
186,,,,,,
187,,,,,,
188,,,,,,
189,,,,,,
190,,,,,,
191,,,,,,
192,,,,,,
193,,,,,,
194,,,,,,
195,,,,,,
196,,,,,,
197,,,,,,
198,,,,,,
199,,,,,,
200,,,,,,
201,,,,,,
202,,,,,,
203,,,,,,
204,,,,,,
205,,,,,,
206,,,,,,
207,,,,,,
208,,,,,,
209,,,,,,
210,,,,,,
211,,,,,,
212,,,,,,
213,,,,,,
214,,,,,,
215,,,,,,
216,,,,,,
217,,,,,,
218,,,,,,
219,,,,,,
220,,,,,,
221,,,,,,
222,,,,,,
223,,,,,,
224,,,,,,
225,,,,,,
226,,,,,,
227,,,,,,
228,,,,,,
229,,,,,,
230,,,,,,
231,,,,,,
232,,,,,,
233,,,,,,
234,,,,,,
235,,,,,,
236,,,,,,
237,,,,,,
238,,,,,,
239,,,,,,
240,,,,,,
241,,,,,,
242,,,,,,
243,,,,,,
244,,,,,,
245,,,,,,
246,,,,,,
247,,,,,,
248,,,,,,
249,,,,,,
250,,,,,,
251,,,,,,
252,,,,,,
253,,,,,,
254,,,,,,
255,,,,,,
256,,,,,,
257,,,,,,
258,,,,,,
259,,,,,,
260,,,,,,
261,,,,,,
262,,,,,,
263,,,,,,
264,,,,,,
265,,,,,,
266,,,,,,
267,,,,,,
268,,,,,,
269,,,,,,
270,,,,,,
271,,,,,,
272,,,,,,
273,,,,,,
274,,,,,,
275,,,,,,
276,,,,,,
277,,,,,,
278,,,,,,
279,,,,,,
280,,,,,,
281,,,,,,
282,,,,,,
283,,,,,,
284,,,,,,
285,,,,,,
286,,,,,,
287,,,,,,